…
```r
 NRCounties <- NRCounties %>% group_by(date) %>% 
        mutate(USD.portion = predict / sum(predict),
               USD.newpredict = USD.portion * sum(USD)) %>% 
        arrange(desc(USD.portion))

NRCounties %>% group_by(date) %>% summarise(known.total=sum(USD),predicted.total=sum(USD.newpredict))
```

```
## # A tibble: 46 x 3
##          date known.total predicted.total
##        <date>       <dbl>           <dbl>
##  1 2014-01-01     2852155         2852155
##  2 2014-02-01     2877337         2877337
##  3 2014-03-01     3939726         3939726
##  4 2014-04-01     2852875         2852875
##  5 2014-05-01     2976718         2976718
##  6 2014-06-01     3759653         3759653
##  7 2014-07-01     3581815         3581815
##  8 2014-08-01     4402839         4402839
##  9 2014-09-01     4607989         4607989
## 10 2014-10-01     5534783         5534783
## # ... with 36 more rows
```
…
